<svg xmlns="http://www.w3.org/2000/svg" width="37.5" height="35.507" viewBox="0 0 37.5 35.507">
  <g id="Group_1542" data-name="Group 1542" transform="translate(-1403.5 -2728.313)">
    <g id="Group_1397" data-name="Group 1397" transform="translate(830 2645.809)">
      <path id="Path_11416" data-name="Path 11416" d="M330,1213v15.865h9.65v-10.632h6.733v10.632h9.65V1212.3" transform="translate(249.233 -1111.86)" fill="none" stroke="#fff" stroke-linecap="round" stroke-linejoin="round" stroke-width="2"/>
      <path id="Path_11417" data-name="Path 11417" d="M349.5,1164.567,331.361,1148,314,1164.567" transform="translate(260.5 -1064.496)" fill="none" stroke="#fff" stroke-linecap="round" stroke-linejoin="round" stroke-width="2"/>
    </g>
  </g>
</svg>
